{
  "files": {
    "main.css": "/cake_magic/static/css/main.cacdb88c.chunk.css",
    "main.js": "/cake_magic/static/js/main.81dba52e.chunk.js",
    "runtime-main.js": "/cake_magic/static/js/runtime-main.53cf45a2.js",
    "static/js/2.0f0ff3a1.chunk.js": "/cake_magic/static/js/2.0f0ff3a1.chunk.js",
    "index.html": "/cake_magic/index.html",
    "static/js/2.0f0ff3a1.chunk.js.LICENSE.txt": "/cake_magic/static/js/2.0f0ff3a1.chunk.js.LICENSE.txt"
  },
  "entrypoints": [
    "static/js/runtime-main.53cf45a2.js",
    "static/js/2.0f0ff3a1.chunk.js",
    "static/css/main.cacdb88c.chunk.css",
    "static/js/main.81dba52e.chunk.js"
  ]
}